<svg xmlns="http://www.w3.org/2000/svg" width="17.619" height="14.698" viewBox="0 0 17.619 14.698">
  <path id="Icon_feather-twitter" data-name="Icon feather-twitter" d="M18.119,4.492a8.234,8.234,0,0,1-2.372,1.156A3.384,3.384,0,0,0,9.809,7.914V8.67a8.053,8.053,0,0,1-6.8-3.422s-3.022,6.8,3.777,9.82A8.793,8.793,0,0,1,1.5,16.579c6.8,3.777,15.108,0,15.108-8.687a3.4,3.4,0,0,0-.06-.627,5.832,5.832,0,0,0,1.571-2.772Z" transform="translate(-1 -3.93)" fill="none" stroke="#fff" stroke-linecap="round" stroke-linejoin="round" stroke-width="1"/>
</svg>
