<svg xmlns="http://www.w3.org/2000/svg" width="12.951" height="12.975" viewBox="0 0 12.951 12.975">
  <path id="Icon_feather-phone" data-name="Icon feather-phone" d="M15.317,12.115v1.833a1.222,1.222,0,0,1-1.332,1.222,12.09,12.09,0,0,1-5.272-1.875A11.912,11.912,0,0,1,5.048,9.628a12.09,12.09,0,0,1-1.875-5.3A1.222,1.222,0,0,1,4.388,3H6.221A1.222,1.222,0,0,1,7.443,4.051a7.844,7.844,0,0,0,.428,1.717A1.222,1.222,0,0,1,7.6,7.056l-.776.776A9.774,9.774,0,0,0,10.485,11.5l.776-.776a1.222,1.222,0,0,1,1.289-.275,7.844,7.844,0,0,0,1.717.428,1.222,1.222,0,0,1,1.051,1.24Z" transform="translate(-2.767 -2.6)" fill="none" stroke="#fff" stroke-linecap="round" stroke-linejoin="round" stroke-width="0.8"/>
</svg>
